{
  "users": {
    "_model": "User",
    "admin": {
      "firstName": "Admin",
      "lastName": "Admin",
      "email": "admin@mytweet.com",
      "password": "secret"
    },
    "homer" : {
      "firstName":"Homer",
      "lastName":"Simpson",
      "email":"homer@simpson.com",
      "password": "$2a$10$GKKD8KjVTugyRHk9g1FQl.gSW1kxLmkT4hjzigOnZDODUdgDmr192"
    },
    "marge" : {
      "firstName":"Marge",
      "lastName":"Simpson",
      "email":"marge@simpson.com",
      "password": "$2a$10$5EbKeqASmg243C7eHtNkQOVGJBtUoBoiknTRJkoV15DB1f.uYPcZa"
    },
    "bart" : {
      "firstName":"bart",
      "lastName":"Simpson",
      "email":"bart@simpson.com",
      "password": "$2a$10$BeC9XaEwDaKst9u6vOFh3ueIAiP6xcbTkRBG7yhKs/69q3alqVvF6"
    },
    "lisa" : {
      "firstName":"Lisa",
      "lastName":"Simpson",
      "email":"lisa@simpson.com",
      "password":"$2a$10$Ov.o6iMv5jebY98uT/ZGeOtDZljFn6HPgLqcdiSSX8.2wj3B6pR/."
    }
  },
  "tweets": {
    "_model": "Tweet",
    "one": {
      "message": "Homers tweet1",
      "id": 1,
      "name": "homer@simpson.com",
      "date": 1482848007682.0,
      "tweeter": "->users.homer"
    },
    "two": {
      "message": "Homers tweet2",
      "id": 11,
      "name": "homer@simpson.com",
      "date": 1482848217683.0,
      "tweeter": "->users.homer"
    },
    "three": {
      "message": "Marges tweet",
      "id": 111,
      "name": "marge@simpson.com",
      "date": 1482848427684.0,
      "tweeter": "->users.marge"
    },
    "four": {
      "message": "0 Barts tweet",
      "id": 1111,
      "name": "bart@simpson.com",
      "date": 1482848537685.0,
      "tweeter": "->users.bart"
    },
    "five": {
      "message": "Lisa's tweet",
      "id": 11111,
      "name": "lisa@simpson.com",
      "date": 1482848647686.0,
      "tweeter": "->users.lisa"
    },
    "six": {
      "message": "1 Barts tweet",
      "id": 111111,
      "name": "bart@simpson.com",
      "date": 1482848757687.0,
      "tweeter": "->users.bart"
    },
    "seven": {
      "message": "2 Barts tweet",
      "id": 1111111,
      "name": "bart@simpson.com",
      "date": 1482848867688.0,
      "tweeter": "->users.bart"
    },
    "eight": {
      "message": "3 Barts tweet",
      "id": 11111111,
      "name": "bart@simpson.com",
      "date": 1482848977689.0,
      "tweeter": "->users.bart"
    }
  }
}

